STA237-hw1
…
Method 3: The Rank Test

\(H_{0}\): residuals are independent and identically distributed

\(H_{a}\): residuals are not independent and identically distributed

rank_test_df = deseasonalized_ts_df %>% 
  select(std_residuals) %>% 
  mutate(i = seq(1,72,by = 1)) %>% 
  mutate(j = seq(1,72,by = 1))

rank_test_df

## # A tibble: 72 x 3
##    std_residuals     i     j
##            <dbl> <dbl> <dbl>
##  1         0.415     1     1
##  2         0.847     2     2
##  3         0.405     3     3
##  4         0.132     4     4
##  5        -0.186     5     5
##  6        -2.07      6     6
##  7        -0.566     7     7
##  8        -1.30      8     8
##  9        -1.80      9     9
## 10        -1.47     10    10
## #  with 62 more rows
…
P_statistic > 1.96

## [1] FALSE

Since our test statistic P = 0.0027413 is not \(>\) 1.96, the corresponding normal distribution critical value at \(\alpha\) = .05, we fail to reject the null hypothesis and conclude that the residuals are independent and identically distributed.

Method 4: QQPlot (Test for Normality)

#standardize the residuals first
deseasonalized_ts_df = deseasonalized_ts_df %>% 
  mutate(std_residuals = resid/sd(resid))

deseasonalized_ts_df

## # A tibble: 72 x 5
##    accidents_ts     t poly_fitted_values  resid std_residuals
##           <dbl> <dbl>              <dbl>  <dbl>         <dbl>
##  1        9811.     1              9915.  104.          0.415
##  2        9628.     2              9840.  212.          0.847
##  3        9665.     3              9767.  102.          0.405
##  4        9663.     4              9696.   33.2         0.132
##  5        9674.     5              9627.  -46.6        -0.186
##  6       10080.     6              9560. -520.         -2.07 
##  7        9637.     7              9495. -142.         -0.566
##  8        9757.     8              9432. -325.         -1.30 
##  9        9822.     9              9371. -451.         -1.80 
## 10        9680.    10              9312. -367.         -1.47 
## #  with 62 more rows
…
