STA237-hw2
…
Problem 9:

spots_data = read_csv("spots.dat",col_names = F) %>% 
  rename("spots" = "X1")

## 
##  Column specification 
## cols(
##   X1 = col_double()
## )

spots_data

## # A tibble: 100 x 1
##    spots
##    <dbl>
##  1   101
##  2    82
##  3    66
##  4    35
##  5    31
##  6     7
##  7    20
##  8    92
##  9   154
## 10   125
## #  with 90 more rows
#make a time series
spots_ts = ts(data = spots_data,start = 1770, end = 1869, frequency = 1)

#transform data to make it stationary
spots_data = spots_data %>% 
  mutate(log_diff_spots = log(spots)-log(lag(spots))) %>% 
  mutate(grow_rate_spots = (spots - lag(spots))/lag(spots)) %>% 
  mutate(log_spots = log(spots)) %>% 
  mutate(diff_spots = spots - lag(spots)) %>% 
  filter(spots != 0, spots != 1) %>% 
  drop_na()

spots_data

## # A tibble: 97 x 5
##    spots log_diff_spots grow_rate_spots log_spots diff_spots
##    <dbl>          <dbl>           <dbl>     <dbl>      <dbl>
##  1    82         -0.208          -0.188      4.41        -19
##  2    66         -0.217          -0.195      4.19        -16
##  3    35         -0.634          -0.470      3.56        -31
##  4    31         -0.121          -0.114      3.43         -4
##  5     7         -1.49           -0.774      1.95        -24
##  6    20          1.05            1.86       3.00         13
##  7    92          1.53            3.6        4.52         72
##  8   154          0.515           0.674      5.04         62
##  9   125         -0.209          -0.188      4.83        -29
## 10    85         -0.386          -0.32       4.44        -40
## #  with 87 more rows
…
